@startuml

title __INPUTSPECIFICATION's Class Diagram__\n

  namespace Data.InputSpecification {
    class Data.InputSpecification.CSVReader {
        {static} - FIELD_SEPARATOR : String
        - mapToItem : Function<String, ArrayList<Float>>
        + readGraph()
        + readQAPGraph()
        - mapToArray()
    }
  }
  

  namespace Data.InputSpecification {
    class Data.InputSpecification.InputParameters {
        - influxSize : int
        - populationSize : int
        - presets : StringBuilder
        + determineCompatibility()
        + getCrossoverOperator()
        + getEvaluator()
        + getInfluxSize()
        + getMutationOperator()
        + getPopulationSize()
        + getPresetsAsString()
        + getSelectionOperator()
        + getSpecimenRepresentation()
        + getStopCondition()
        + setCrossoverOperator()
        + setEvaluator()
        + setInfluxSize()
        + setMutationOperator()
        + setPopulationSize()
        + setSelectionOperator()
        + setSpecimenRepresentation()
        + setStopCondition()
        + setStopCondition()
    }
  }
  

  namespace Data.InputSpecification {
    class Data.InputSpecification.Pair {
        + Pair()
        + equals()
        + getFirst()
        + getSecond()
        + hashCode()
        + setFirst()
        + setSecond()
        + toString()
    }
  }
  

  Data.InputSpecification.InputParameters o-- Logic.Operators.CrossoverOperators.CrossoverOperator : crossoverOperator
  Data.InputSpecification.InputParameters o-- Logic.GeneticAlgorithm.Evaluator : eval
  Data.InputSpecification.InputParameters o-- Logic.Operators.MutationOperators.MutationOperator : mutationOperator
  Data.InputSpecification.InputParameters o-- Logic.Operators.SelectionOperators.SelectionOperator : selectionOperator
  Data.InputSpecification.InputParameters o-- Data.SpecimenSpecification.SpecimenRepresentationType : specimenRepresentationType
  Data.InputSpecification.InputParameters o-- Logic.GeneticAlgorithm.StopConditions.StopCondition : stopCondition
  Data.InputSpecification.Pair o-- A : first
  Data.InputSpecification.Pair o-- B : second


right footer


PlantUML diagram generated by SketchIt! (https://bitbucket.org/pmesmeur/sketch.it)
For more information about this tool, please contact philippe.mesmeur@gmail.com
endfooter

@enduml
