@startuml

title __GENETICALGORITHM's Class Diagram__\n

  namespace Logic.GeneticAlgorithm {
    class Logic.GeneticAlgorithm.Breeder {
        + Breeder()
        + totalCrossover()
        - crossover()
        - symmetricCrossover()
    }
  }
  

  namespace Logic.GeneticAlgorithm {
    class Logic.GeneticAlgorithm.Evaluator {
        - N : int
        + Evaluator()
        + Evaluator()
        + Evaluator()
        + evaluateSpecimen()
        + getProblemSize()
        + inverseEvaluateSpecimen()
        + setDistanceAndCostGraph()
        + setDistanceGraph()
        - calculateTotalQAPCost()
        - evaluateDescendingSequence()
        - evaluateIntegerVector()
        - evaluateOrdinal()
    }
  }
  

  namespace Logic.GeneticAlgorithm {
    class Logic.GeneticAlgorithm.GeneticAlgorithm {
        # iteration : int
        - bestSpecimen : String
        - bestSpecimenScore : float
        - influxSize : int
        - populationSize : int
        - presetsDescription : String
        - problemSize : int
        - startOfGeneticCycle : long
        - time : long
        + GeneticAlgorithm()
        + execute()
        - performGeneticCycle()
    }
  }
  

  namespace Logic.GeneticAlgorithm {
    class Logic.GeneticAlgorithm.Mutator {
        + Mutator()
        + mutatePopulation()
    }
  }
  

  namespace Logic.GeneticAlgorithm {
    class Logic.GeneticAlgorithm.PopulationGenerator {
        - problemSize : int
        + PopulationGenerator()
        + generateInflux()
        + generateInitialPopulation()
    }
  }
  

  namespace Logic.GeneticAlgorithm {
    class Logic.GeneticAlgorithm.Selector {
        + Selector()
        + performSelection()
    }
  }
  

  namespace Logic.GeneticAlgorithm {
    class Logic.GeneticAlgorithm.SpecimenComparator {
        + SpecimenComparator()
        + calculateEvaluationFunction()
        + compare()
        + getEvaluator()
        + setEvaluator()
    }
  }
  

  Logic.GeneticAlgorithm.Breeder o-- Logic.Operators.CrossoverOperators.CrossoverOperator : operator
  Logic.GeneticAlgorithm.Evaluator o-- Data.ProblemSpecification.DistanceGraph : distanceGraph
  Logic.GeneticAlgorithm.Evaluator o-- Data.ProblemSpecification.FlowsGraph : flowsGraph
  Logic.GeneticAlgorithm.Evaluator o-- Data.ProblemSpecification.ProblemType : problemType
  Logic.GeneticAlgorithm.GeneticAlgorithm o-- Logic.GeneticAlgorithm.StopConditions.StopCondition : stopCondition
  Logic.GeneticAlgorithm.GeneticAlgorithm o-- Logic.GeneticAlgorithm.Breeder : breeder
  Logic.GeneticAlgorithm.GeneticAlgorithm o-- Data.SpecimenSpecification.Population : currentPopulation
  Logic.GeneticAlgorithm.GeneticAlgorithm o-- Logic.GeneticAlgorithm.Evaluator : evaluator
  Logic.GeneticAlgorithm.GeneticAlgorithm o-- Logic.GeneticAlgorithm.Mutator : mutator
  Logic.GeneticAlgorithm.GeneticAlgorithm o-- Logic.GeneticAlgorithm.PopulationGenerator : populationGenerator
  Logic.GeneticAlgorithm.GeneticAlgorithm o-- Logic.GeneticAlgorithm.Selector : selector
  Logic.GeneticAlgorithm.GeneticAlgorithm o-- Data.SpecimenSpecification.SpecimenRepresentationType : type
  Logic.GeneticAlgorithm.Mutator o-- Logic.Operators.MutationOperators.MutationOperator : operator
  Logic.GeneticAlgorithm.PopulationGenerator o-- Data.SpecimenSpecification.SpecimenRepresentationType : type
  Logic.GeneticAlgorithm.Selector o-- Logic.Operators.SelectionOperators.SelectionOperator : selectionOperator
  Logic.GeneticAlgorithm.SpecimenComparator .up.|> java.util.Comparator
  Logic.GeneticAlgorithm.SpecimenComparator o-- Logic.GeneticAlgorithm.Evaluator : evaluator

@enduml
