%YAML 1.1
%TAG !u! tag:unity3d.com,2011:
--- !u!1045 &1
EditorBuildSettings:
  m_ObjectHideFlags: 0
  serializedVersion: 2
  m_Scenes:
  - enabled: 1
    path: Assets/Scenes/Menu.unity
    guid: b79bf227c4f35b042bb12490c6bc6cb6
  - enabled: 1
    path: Assets/Scenes/Gameplay.unity
    guid: 99c9720ab356a0642a771bea13969a05
  - enabled: 1
    path: Assets/Scenes/About.unity
    guid: 7709387794adfc6489bd5a2262e7bbca
  - enabled: 1
    path: Assets/Scenes/Stats.unity
    guid: fa92be1312cdf604eb7b4bed84db1957
  - enabled: 1
    path: Assets/Scenes/Options.unity
    guid: 1529c32859090e8449890080a70b51ea
  - enabled: 1
    path: Assets/Scenes/Endgame.unity
    guid: f17a82b5016c65d46b07829ecae06d12
  m_configObjects: {}
