4	4	7	6	4	4	6	2	4	53.56079
5	7	2	8	3	5	5	5	5	66.39999
5	4	7	7	2	4	6	1	1	32.14106
8	8	5	0	4	5	5	5	7	6.380334
3	6	6	6	1	6	7	4	6	129.647
4	5	4	4	6	7	5	5	1	0
7	2	6	6	5	6	3	1	3	0
4	6	6	6	6	1	6	2	1	62.81664
4	7	4	6	7	2	5	3	2	61.7552
